lcd_new/ictrl.vcd
$date
	Fri May  3 14:57:42 2024
$end
$version
	Icarus Verilog
$end
$timescale
	1s
$end
$scope module lcd_tb $end
$var reg 1 ! clk $end
$var reg 1 " rInt $end
$var reg 1 # rst $end
$scope module int_ctrl $end
$var wire 1 $ changeWeekday $end
$var wire 1 ! mclk $end
$var wire 1 # rst $end
$var wire 64 % weekdays0 [63:0] $end
$var wire 64 & weekdays1 [63:0] $end
$var wire 64 ' weekdays2 [63:0] $end
$var wire 1 ( RW $end
$var wire 1 ) RS $end
$var wire 1 * E $end
$var wire 8 + DB [7:0] $end
$var reg 1 , blatched $end
$var reg 128 - lineA [127:0] $end
$var reg 128 . lineB [127:0] $end
$var reg 3 / weekday [2:0] $end
$scope module lcd_ctrl $end
$var wire 128 0 LineA [127:0] $end
$var wire 128 1 LineB [127:0] $end
$var wire 30 2 init_cmd [29:0] $end
$var wire 1 ! mclk $end
$var wire 1 # rst $end
$var wire 1 3 refresh_data_intr $end
$var wire 1 4 init_ins_intr $end
$var wire 1 5 exec_intr $end
$var wire 120 6 data_lst [119:0] $end
$var wire 1 7 data_intr $end
$var reg 8 8 DB [7:0] $end
$var reg 1 * E $end
$var reg 1 ) RS $end
$var reg 1 ( RW $end
$var reg 4 9 data_state [3:0] $end
$var reg 1 : data_substate $end
$var reg 1 ; exec_data_next $end
$var reg 1 < exec_next $end
$var reg 1 = init_bar $end
$var reg 4 > init_state [3:0] $end
$var reg 1 ? init_substate $end
$var reg 1 @ send_next $end
$var reg 1 A start_refresh_intr $end
$scope module ctrl_data $end
$var wire 16 B delay_ms [15:0] $end
$var wire 1 ! mclk $end
$var wire 1 @ raiseInterrupt $end
$var wire 1 # rst $end
$var reg 64 C clk_counter [63:0] $end
$var reg 1 7 interrupt $end
$var reg 17 D ms_counter [16:0] $end
$var reg 1 E rIntLatched $end
$var reg 1 F upCount $end
$upscope $end
$scope module ctrl_ins $end
$var wire 16 G delay_ms [15:0] $end
$var wire 1 ! mclk $end
$var wire 1 ; raiseInterrupt $end
$var wire 1 # rst $end
$var reg 64 H clk_counter [63:0] $end
$var reg 1 5 interrupt $end
$var reg 17 I ms_counter [16:0] $end
$var reg 1 J rIntLatched $end
$var reg 1 K upCount $end
$upscope $end
$scope module ctrl_refresh $end
$var wire 16 L delay_ms [15:0] $end
$var wire 1 ! mclk $end
$var wire 1 A raiseInterrupt $end
$var wire 1 # rst $end
$var reg 64 M clk_counter [63:0] $end
$var reg 1 3 interrupt $end
$var reg 17 N ms_counter [16:0] $end
$var reg 1 O rIntLatched $end
$var reg 1 P upCount $end
$upscope $end
$scope module init_ctrl_ins $end
$var wire 16 Q delay_ms [15:0] $end
$var wire 1 ! mclk $end
$var wire 1 R raiseInterrupt $end
$var wire 1 # rst $end
$var reg 64 S clk_counter [63:0] $end
$var reg 1 4 interrupt $end
$var reg 17 T ms_counter [16:0] $end
$var reg 1 U rIntLatched $end
$var reg 1 V upCount $end
$upscope $end
$upscope $end
$upscope $end
$upscope $end
$scope module test_lcd_ctrl $end
$var wire 1 W redled $end
$var wire 1 X rst $end
$var wire 1 Y clk $end
$var wire 1 Z RW $end
$var wire 1 [ RS $end
$var wire 1 \ LCD_DB7 $end
$var wire 1 ] LCD_DB6 $end
$var wire 1 ^ LCD_DB5 $end
$var wire 1 _ LCD_DB4 $end
$var wire 1 ` LCD_DB3 $end
$var wire 1 a LCD_DB2 $end
$var wire 1 b LCD_DB1 $end
$var wire 1 c LCD_DB0 $end
$var wire 1 d E $end
$var reg 1 e reset $end
$scope module lcd_disp_ctrl $end
$var wire 1 f changeWeekday $end
$var wire 1 e rst $end
$var wire 64 g weekdays0 [63:0] $end
$var wire 64 h weekdays1 [63:0] $end
$var wire 64 i weekdays2 [63:0] $end
$var wire 1 Y mclk $end
$var wire 1 Z RW $end
$var wire 1 [ RS $end
$var wire 1 d E $end
$var wire 8 j DB [7:0] $end
$var reg 1 k blatched $end
$var reg 128 l lineA [127:0] $end
$var reg 128 m lineB [127:0] $end
$var reg 3 n weekday [2:0] $end
$scope module lcd_ctrl $end
$var wire 128 o LineA [127:0] $end
$var wire 128 p LineB [127:0] $end
$var wire 30 q init_cmd [29:0] $end
$var wire 1 e rst $end
$var wire 1 r refresh_data_intr $end
$var wire 1 Y mclk $end
$var wire 1 s init_ins_intr $end
$var wire 1 t exec_intr $end
$var wire 120 u data_lst [119:0] $end
$var wire 1 v data_intr $end
$var reg 8 w DB [7:0] $end
$var reg 1 d E $end
$var reg 1 [ RS $end
$var reg 1 Z RW $end
$var reg 4 x data_state [3:0] $end
$var reg 1 y data_substate $end
$var reg 1 z exec_data_next $end
$var reg 1 { exec_next $end
$var reg 1 | init_bar $end
$var reg 4 } init_state [3:0] $end
$var reg 1 ~ init_substate $end
$var reg 1 !" send_next $end
$var reg 1 "" start_refresh_intr $end
$scope module ctrl_data $end
$var wire 16 #" delay_ms [15:0] $end
$var wire 1 !" raiseInterrupt $end
$var wire 1 e rst $end
$var wire 1 Y mclk $end
$var reg 64 $" clk_counter [63:0] $end
$var reg 1 v interrupt $end
$var reg 17 %" ms_counter [16:0] $end
$var reg 1 &" rIntLatched $end
$var reg 1 '" upCount $end
$upscope $end
$scope module ctrl_ins $end
$var wire 16 (" delay_ms [15:0] $end
$var wire 1 z raiseInterrupt $end
$var wire 1 e rst $end
$var wire 1 Y mclk $end
$var reg 64 )" clk_counter [63:0] $end
$var reg 1 t interrupt $end
$var reg 17 *" ms_counter [16:0] $end
$var reg 1 +" rIntLatched $end
$var reg 1 ," upCount $end
$upscope $end
$scope module ctrl_refresh $end
$var wire 16 -" delay_ms [15:0] $end
$var wire 1 "" raiseInterrupt $end
$var wire 1 e rst $end
$var wire 1 Y mclk $end
$var reg 64 ." clk_counter [63:0] $end
$var reg 1 r interrupt $end
$var reg 17 /" ms_counter [16:0] $end
$var reg 1 0" rIntLatched $end
$var reg 1 1" upCount $end
$upscope $end
$scope module init_ctrl_ins $end
$var wire 16 2" delay_ms [15:0] $end
$var wire 1 3" raiseInterrupt $end
$var wire 1 e rst $end
$var wire 1 Y mclk $end
$var reg 64 4" clk_counter [63:0] $end
$var reg 1 s interrupt $end
$var reg 17 5" ms_counter [16:0] $end
$var reg 1 6" rIntLatched $end
$var reg 1 7" upCount $end
$upscope $end
$upscope $end
$upscope $end
$scope module qlal4s3b_cell $end
$var wire 1 Y Sys_Clk0 $end
$var reg 1 8" clk $end
$upscope $end
$upscope $end
$enddefinitions $end
#0
$dumpvars
08"
07"
06"
b0 5"
b0 4"
13"
b100 2"
01"
00"
b0 /"
b0 ."
b10 -"
0,"
0+"
b0 *"
b0 )"
b100 ("
0'"
0&"
b0 %"
b0 $"
b10 #"
0""
0!"
0~
b0 }
0|
0{
0z
0y
b0 x
bx w
xv
b10xxxxxxxx10xxxxxxxx10xxxxxxxx10xxxxxxxx10xxxxxxxx10xxxxxxxx10xxxxxxxx10xxxxxxxx10xxxxxxxx10xxxxxxxx10xxxxxxxx0010000000 u
xt
xs
xr
b11000000011110000111000 q
bx p
bx o
bx n
bx m
bx l
0k
bx j
b110111001110100011010010111010101100100011001010110111001000101 i
b111010101100001011100100110100001100101011101010110111101000101 h
b101001101010011010001100101010001010111010101000100110101000101 g
zf
0e
xd
xc
xb
xa
x`
x_
x^
x]
x\
x[
xZ
0Y
zX
zW
0V
0U
b0 T
b0 S
1R
b1000 Q
0P
0O
b0 N
b0 M
b10 L
0K
0J
b0 I
b0 H
b1000 G
0F
0E
b0 D
b0 C
b10 B
0A
0@
0?
b0 >
0=
0<
0;
0:
b0 9
bx 8
x7
b10xxxxxxxx10xxxxxxxx10xxxxxxxx10xxxxxxxx10xxxxxxxx10xxxxxxxx10xxxxxxxx10xxxxxxxx10xxxxxxxx10xxxxxxxx10xxxxxxxx0010000000 6
x5
x4
x3
b11000000011110000111000 2
bx 1
bx 0
bx /
bx .
bx -
0,
bx +
x*
x)
x(
b110111001110100011010010111010101100100011001010110111001000101 '
b111010101100001011100100110100001100101011101010110111101000101 &
b101001101010011010001100101010001010111010101000100110101000101 %
1$
0#
0"
1!
$end
#1
b1000100000100010000010001000001000100000100010000010001000001000100000100010000010xxxxxxxx10xxxxxxxx10xxxxxxxx0010000000 u
0c
0b
0a
1`
1_
1^
0]
0\
16"
17"
b1 $"
b1 )"
b1 ."
1d
0[
0Z
b111000 j
b111000 w
b100000001000000010000000100000001000000010000000100000001000000010000000100000001000000010000000100000xxxxxxxxxxxxxxxxxxxxxxxx l
b100000001000000010000000100000001000000010000000100000001000000010000000100000001000000010000000100000xxxxxxxxxxxxxxxxxxxxxxxx o
1Y
18"
0!
#2
1U
1V
b1 C
b1 H
b1 M
1*
0)
0(
b111000 +
b111000 8
1,
0Y
08"
1!
#3
b10 ."
b10 )"
b10 $"
b1 4"
1Y
18"
0!
#4
b1000100000100010000010001000001000100000100010000010001000001000100000100010000010xxxxxxxx10xxxxxxxx10xxxxxxxx0010000000 6
b100000001000000010000000100000001000000010000000100000001000000010000000100000001000000010000000100000xxxxxxxxxxxxxxxxxxxxxxxx -
b100000001000000010000000100000001000000010000000100000001000000010000000100000001000000010000000100000xxxxxxxxxxxxxxxxxxxxxxxx 0
b0 M
b0 H
b0 C
b1 S
0Y
08"
1!
#5
b10 4"
b11 $"
b11 )"
b11 ."
1Y
18"
0!
#6
b1 T
b0 S
b1 C
b1 H
b1 M
0Y
08"
1!
#7
b100 ."
b100 )"
b100 $"
b11 4"
1Y
18"
0!
#8
b0 M
b0 H
b0 C
b1 S
0Y
08"
1!
#9
b100 4"
b101 $"
b101 )"
b101 ."
1Y
18"
0!
#10
b10 T
b0 S
b1 C
b1 H
b1 M
0Y
08"
1!
#11
b110 ."
b110 )"
b110 $"
b101 4"
1Y
18"
0!
#12
b0 M
b0 H
b0 C
b1 S
0Y
08"
1!
#13
b110 4"
b111 $"
b111 )"
b111 ."
1Y
18"
0!
#14
b11 T
b0 S
b1 C
b1 H
b1 M
0Y
08"
1!
#15
b1000 ."
b1000 )"
b1000 $"
b111 4"
1Y
18"
0!
#16
b0 M
b0 H
b0 C
b1 S
0Y
08"
1!
#17
b1000 4"
b1001 $"
b1001 )"
b1001 ."
1Y
18"
0!
#18
b100 T
b0 S
b1 C
b1 H
b1 M
0Y
08"
1!
#19
b1010 ."
b1010 )"
b1010 $"
b1001 4"
1Y
18"
0!
#20
b100010000010001000001000100000100010000010001000001000100000100010000010001000001000100000100010000010001000000010000000 6
b100000001000000010000000100000001000000010000000100000001000000010000000100000001000000010000000100000001000000010000000100000 .
b100000001000000010000000100000001000000010000000100000001000000010000000100000001000000010000000100000001000000010000000100000 1
b100000001000000010000000100000001000000010000000100000001000000010000000100000001000000010000000100000001000000010000000100000 -
b100000001000000010000000100000001000000010000000100000001000000010000000100000001000000010000000100000001000000010000000100000 0
0,
b0 /
b0 +
b0 8
0*
03
b0 M
05
b0 H
07
b0 C
0U
04
0V
b0 T
0Y
08"
1!
1#
#21
b1010 4"
b1011 $"
b1011 )"
b1011 ."
1Y
18"
0!
#22
1U
1V
b1 C
b1 H
b1 M
1*
b111000 +
b111000 8
b1 /
1,
0Y
08"
1!
0#
#23
b1100 ."
b1100 )"
b1100 $"
b1011 4"
1Y
18"
0!
#24
b100010000010001000001000100000100010000010001000001000100000100010000010001000001001101110100110111110010011010010000000 6
b100000001000000010000000100000001000000010000000100000001000000010000000100000001000000010000000100000011011100110111101001101 -
b100000001000000010000000100000001000000010000000100000001000000010000000100000001000000010000000100000011011100110111101001101 0
b0 M
b0 H
b0 C
b1 S
0Y
08"
1!
#25
b1100 4"
b1101 $"
b1101 )"
b1101 ."
1Y
18"
0!
#26
b1 T
b0 S
b1 C
b1 H
b1 M
0Y
08"
1!
#27
b1110 ."
b1110 )"
b1110 $"
b1101 4"
1Y
18"
0!
#28
b0 M
b0 H
b0 C
b1 S
0Y
08"
1!
#29
b1110 4"
b1111 $"
b1111 )"
b1111 ."
1Y
18"
0!
#30
b10 T
b0 S
b1 C
b1 H
b1 M
0Y
08"
1!
#31
b10000 ."
b10000 )"
b10000 $"
b1111 4"
1Y
18"
0!
#32
b0 M
b0 H
b0 C
b1 S
0$
0Y
08"
1!
1"
#33
b10000 4"
b10001 $"
b10001 )"
b10001 ."
1Y
18"
0!
#34
b11 T
b0 S
b1 C
b1 H
b1 M
0Y
08"
1!
#35
b10010 ."
b10010 )"
b10010 $"
b10001 4"
1Y
18"
0!
#36
b0 M
b0 H
b0 C
b1 S
0Y
08"
1!
#37
b10010 4"
b10011 $"
b10011 )"
b10011 ."
1Y
18"
0!
#38
b100 T
b0 S
b1 C
b1 H
b1 M
0Y
08"
1!
#39
b10100 ."
b10100 )"
b10100 $"
b10011 4"
1Y
18"
0!
#40
b0 M
b0 H
b0 C
b1 S
0Y
08"
1!
#41
b10100 4"
b10101 $"
b10101 )"
b10101 ."
1Y
18"
0!
#42
b101 T
b0 S
b1 C
b1 H
b1 M
0Y
08"
1!
#43
b10110 ."
b10110 )"
b10110 $"
b10101 4"
1Y
18"
0!
#44
b0 M
b0 H
b0 C
b1 S
0Y
08"
1!
#45
b10110 4"
b10111 $"
b10111 )"
b10111 ."
1Y
18"
0!
#46
b110 T
b0 S
b1 C
b1 H
b1 M
0Y
08"
1!
#47
b11000 ."
b11000 )"
b11000 $"
b10111 4"
1Y
18"
0!
#48
b0 M
b0 H
b0 C
b1 S
0Y
08"
1!
#49
b11000 4"
b11001 $"
b11001 )"
b11001 ."
1Y
18"
0!
#50
b111 T
b0 S
b1 C
b1 H
b1 M
0Y
08"
1!
#51
b11010 ."
b11010 )"
b11010 $"
b11001 4"
1Y
18"
0!
#52
b0 M
b0 H
b0 C
b1 S
0Y
08"
1!
#53
b11010 4"
b11011 $"
b11011 )"
b11011 ."
1Y
18"
0!
#54
0V
14
b0 T
b0 S
b1 C
b1 H
b1 M
0Y
08"
1!
#55
b11100 ."
b11100 )"
b11100 $"
b11011 4"
1Y
18"
0!
#56
0R
1<
1?
b0 M
b0 H
b0 C
04
b1 S
0Y
08"
1!
#57
b11100 4"
b11101 $"
b11101 )"
b11101 ."
1Y
18"
0!
#58
1R
0U
b0 S
b1 C
b1 H
b1 M
0*
0<
0Y
08"
1!
#59
b11110 ."
b11110 )"
b11110 $"
b11101 4"
1Y
18"
0!
#60
b0 M
b0 H
b0 C
1U
1V
0Y
08"
1!
#61
b11110 4"
b11111 $"
b11111 )"
b11111 ."
1Y
18"
0!
#62
b1 S
b1 C
b1 H
b1 M
0Y
08"
1!
#63
b100000 ."
b100000 )"
b100000 $"
b11111 4"
1Y
18"
0!
#64
b0 M
b0 H
b0 C
b1 T
b0 S
0Y
08"
1!
#65
b100000 4"
b100001 $"
b100001 )"
b100001 ."
1Y
18"
0!
#66
b1 S
b1 C
b1 H
b1 M
0Y
08"
1!
#67
b100010 ."
b100010 )"
b100010 $"
b100001 4"
1Y
18"
0!
#68
b0 M
b0 H
b0 C
b10 T
b0 S
0Y
08"
1!
#69
b100010 4"
b100011 $"
b100011 )"
b100011 ."
1Y
18"
0!
#70
b1 S
b1 C
b1 H
b1 M
0Y
08"
1!
#71
b100100 ."
b100100 )"
b100100 $"
b100011 4"
1Y
18"
0!
#72
b0 M
b0 H
b0 C
b11 T
b0 S
0Y
08"
1!
#73
b100100 4"
b100101 $"
b100101 )"
b100101 ."
1Y
18"
0!
#74
b1 S
b1 C
b1 H
b1 M
0Y
08"
1!
#75
b100110 ."
b100110 )"
b100110 $"
b100101 4"
1Y
18"
0!
#76
b0 M
b0 H
b0 C
b100 T
b0 S
0Y
08"
1!
#77
b100110 4"
b100111 $"
b100111 )"
b100111 ."
1Y
18"
0!
#78
b1 S
b1 C
b1 H
b1 M
0Y
08"
1!
#79
b101000 ."
b101000 )"
b101000 $"
b100111 4"
1Y
18"
0!
#80
b0 M
b0 H
b0 C
b101 T
b0 S
0Y
08"
1!
#81
b101000 4"
b101001 $"
b101001 )"
b101001 ."
1Y
18"
0!
#82
b1 S
b1 C
b1 H
b1 M
0Y
08"
1!
#83
b101010 ."
b101010 )"
b101010 $"
b101001 4"
1Y
18"
0!
#84
b0 M
b0 H
b0 C
b110 T
b0 S
0Y
08"
1!
#85
b101010 4"
b101011 $"
b101011 )"
b101011 ."
1Y
18"
0!
#86
b1 S
b1 C
b1 H
b1 M
0Y
08"
1!
#87
b101100 ."
b101100 )"
b101100 $"
b101011 4"
1Y
18"
0!
#88
b0 M
b0 H
b0 C
b111 T
b0 S
0Y
08"
1!
#89
b101100 4"
b101101 $"
b101101 )"
b101101 ."
1Y
18"
0!
#90
b1 S
b1 C
b1 H
b1 M
0Y
08"
1!
#91
b101110 ."
b101110 )"
b101110 $"
b101101 4"
1Y
18"
0!
#92
b0 M
b0 H
b0 C
0V
14
b0 T
b0 S
1$
0Y
08"
1!
0"
#93
b101110 4"
b101111 $"
b101111 )"
b101111 ."
1Y
18"
0!
#94
0R
04
b1 S
b1 C
b1 H
b1 M
1<
0?
b1 >
0Y
08"
1!
#95
b110000 ."
b110000 )"
b110000 $"
b101111 4"
1Y
18"
0!
#96
1R
1*
b1111 +
b1111 8
0<
b0 M
b0 H
b0 C
0U
b0 S
0Y
08"
1!
#97
b110000 4"
b110001 $"
b110001 )"
b110001 ."
1Y
18"
0!
#98
1U
1V
b1 C
b1 H
b1 M
0Y
08"
1!
#99
b110010 ."
b110010 )"
b110010 $"
b110001 4"
1Y
18"
0!
#100
b0 M
b0 H
b0 C
b1 S
0Y
08"
1!
#101
b110010 4"
b110011 $"
b110011 )"
b110011 ."
1Y
18"
0!
#102
b1 T
b0 S
b1 C
b1 H
b1 M
0Y
08"
1!
#103
b110100 ."
b110100 )"
b110100 $"
b110011 4"
1Y
18"
0!
#104
b0 M
b0 H
b0 C
b1 S
0Y
08"
1!
#105
b110100 4"
b110101 $"
b110101 )"
b110101 ."
1Y
18"
0!
#106
b10 T
b0 S
b1 C
b1 H
b1 M
0Y
08"
1!
#107
b110110 ."
b110110 )"
b110110 $"
b110101 4"
1Y
18"
0!
#108
b0 M
b0 H
b0 C
b1 S
0Y
08"
1!
#109
b110110 4"
b110111 $"
b110111 )"
b110111 ."
1Y
18"
0!
#110
b11 T
b0 S
b1 C
b1 H
b1 M
0Y
08"
1!
#111
b111000 ."
b111000 )"
b111000 $"
b110111 4"
1Y
18"
0!
#112
b0 M
b0 H
b0 C
b1 S
0Y
08"
1!
#113
b111000 4"
b111001 $"
b111001 )"
b111001 ."
1Y
18"
0!
#114
b100 T
b0 S
b1 C
b1 H
b1 M
0Y
08"
1!
#115
b111010 ."
b111010 )"
b111010 $"
b111001 4"
1Y
18"
0!
#116
b0 M
b0 H
b0 C
b1 S
0Y
08"
1!
#117
b111010 4"
b111011 $"
b111011 )"
b111011 ."
1Y
18"
0!
#118
b101 T
b0 S
b1 C
b1 H
b1 M
0Y
08"
1!
#119
b111100 ."
b111100 )"
b111100 $"
b111011 4"
1Y
18"
0!
#120
b0 M
b0 H
b0 C
b1 S
0Y
08"
1!
#121
b111100 4"
b111101 $"
b111101 )"
b111101 ."
1Y
18"
0!
#122
b110 T
b0 S
b1 C
b1 H
b1 M
0Y
08"
1!
#123
b111110 ."
b111110 )"
b111110 $"
b111101 4"
1Y
18"
0!
#124
b0 M
b0 H
b0 C
b1 S
0Y
08"
1!
#125
b111110 4"
b111111 $"
b111111 )"
b111111 ."
1Y
18"
0!
#126
b111 T
b0 S
b1 C
b1 H
b1 M
0Y
08"
1!
#127
b1000000 ."
b1000000 )"
b1000000 $"
b111111 4"
1Y
18"
0!
#128
b0 M
b0 H
b0 C
b1 S
0Y
08"
1!
#129
b1000000 4"
b1000001 $"
b1000001 )"
b1000001 ."
1Y
18"
0!
#130
0V
14
b0 T
b0 S
b1 C
b1 H
b1 M
0Y
08"
1!
#131
b1000010 ."
b1000010 )"
b1000010 $"
b1000001 4"
1Y
18"
0!
#132
0R
1<
1?
b0 M
b0 H
b0 C
04
b1 S
0Y
08"
1!
#133
b1000010 4"
b1000011 $"
b1000011 )"
b1000011 ."
1Y
18"
0!
#134
1R
0U
b0 S
b1 C
b1 H
b1 M
0*
0<
0Y
08"
1!
#135
b1000100 ."
b1000100 )"
b1000100 $"
b1000011 4"
1Y
18"
0!
#136
b0 M
b0 H
b0 C
1U
1V
0Y
08"
1!
#137
b1000100 4"
b1000101 $"
b1000101 )"
b1000101 ."
1Y
18"
0!
#138
b1 S
b1 C
b1 H
b1 M
0Y
08"
1!
#139
b1000110 ."
b1000110 )"
b1000110 $"
b1000101 4"
1Y
18"
0!
#140
b0 M
b0 H
b0 C
b1 T
b0 S
0Y
08"
1!
#141
b1000110 4"
b1000111 $"
b1000111 )"
b1000111 ."
1Y
18"
0!
#142
b1 S
b1 C
b1 H
b1 M
0Y
08"
1!
#143
b1001000 ."
b1001000 )"
b1001000 $"
b1000111 4"
1Y
18"
0!
#144
b0 M
b0 H
b0 C
b10 T
b0 S
0Y
08"
1!
#145
b1001000 4"
b1001001 $"
b1001001 )"
b1001001 ."
1Y
18"
0!
#146
b1 S
b1 C
b1 H
b1 M
0Y
08"
1!
#147
b1001010 ."
b1001010 )"
b1001010 $"
b1001001 4"
1Y
18"
0!
#148
b0 M
b0 H
b0 C
b11 T
b0 S
0Y
08"
1!
#149
b1001010 4"
b1001011 $"
b1001011 )"
b1001011 ."
1Y
18"
0!
#150
b1 S
b1 C
b1 H
b1 M
0Y
08"
1!
#151
b1001100 ."
b1001100 )"
b1001100 $"
b1001011 4"
1Y
18"
0!
#152
b0 M
b0 H
b0 C
b100 T
b0 S
0$
0Y
08"
1!
1"
#153
b1001100 4"
b1001101 $"
b1001101 )"
b1001101 ."
1Y
18"
0!
#154
b1 S
b1 C
b1 H
b1 M
0Y
08"
1!
#155
b1001110 ."
b1001110 )"
b1001110 $"
b1001101 4"
1Y
18"
0!
#156
b0 M
b0 H
b0 C
b101 T
b0 S
0Y
08"
1!
#157
b1001110 4"
b1001111 $"
b1001111 )"
b1001111 ."
1Y
18"
0!
#158
b1 S
b1 C
b1 H
b1 M
0Y
08"
1!
#159
b1010000 ."
b1010000 )"
b1010000 $"
b1001111 4"
1Y
18"
0!
#160
b0 M
b0 H
b0 C
b110 T
b0 S
0Y
08"
1!
#161
b1010000 4"
b1010001 $"
b1010001 )"
b1010001 ."
1Y
18"
0!
#162
b1 S
b1 C
b1 H
b1 M
0Y
08"
1!
#163
b1010010 ."
b1010010 )"
b1010010 $"
b1010001 4"
1Y
18"
0!
#164
b0 M
b0 H
b0 C
b111 T
b0 S
0Y
08"
1!
#165
b1010010 4"
b1010011 $"
b1010011 )"
b1010011 ."
1Y
18"
0!
#166
b1 S
b1 C
b1 H
b1 M
0Y
08"
1!
#167
b1010100 ."
b1010100 )"
b1010100 $"
b1010011 4"
1Y
18"
0!
#168
b0 M
b0 H
b0 C
0V
14
b0 T
b0 S
0Y
08"
1!
#169
b1010100 4"
b1010101 $"
b1010101 )"
b1010101 ."
1Y
18"
0!
#170
0R
04
b1 S
b1 C
b1 H
b1 M
1<
0?
b10 >
0Y
08"
1!
#171
b1010110 ."
b1010110 )"
b1010110 $"
b1010101 4"
1Y
18"
0!
#172
1R
1*
b110 +
b110 8
0<
b0 M
b0 H
b0 C
0U
b0 S
0Y
08"
1!
#173
b1010110 4"
b1010111 $"
b1010111 )"
b1010111 ."
1Y
18"
0!
#174
1U
1V
b1 C
b1 H
b1 M
0Y
08"
1!
#175
b1011000 ."
b1011000 )"
b1011000 $"
b1010111 4"
1Y
18"
0!
#176
b0 M
b0 H
b0 C
b1 S
0Y
08"
1!
#177
b1011000 4"
b1011001 $"
b1011001 )"
b1011001 ."
1Y
18"
0!
#178
b1 T
b0 S
b1 C
b1 H
b1 M
0Y
08"
1!
#179
b1011010 ."
b1011010 )"
b1011010 $"
b1011001 4"
1Y
18"
0!
#180
b0 M
b0 H
b0 C
b1 S
0Y
08"
1!
#181
b1011010 4"
b1011011 $"
b1011011 )"
b1011011 ."
1Y
18"
0!
#182
b10 T
b0 S
b1 C
b1 H
b1 M
0Y
08"
1!
#183
b1011100 ."
b1011100 )"
b1011100 $"
b1011011 4"
1Y
18"
0!
#184
b0 M
b0 H
b0 C
b1 S
0Y
08"
1!
#185
b1011100 4"
b1011101 $"
b1011101 )"
b1011101 ."
1Y
18"
0!
#186
b11 T
b0 S
b1 C
b1 H
b1 M
0Y
08"
1!
#187
b1011110 ."
b1011110 )"
b1011110 $"
b1011101 4"
1Y
18"
0!
#188
b0 M
b0 H
b0 C
b1 S
0Y
08"
1!
#189
b1011110 4"
b1011111 $"
b1011111 )"
b1011111 ."
1Y
18"
0!
#190
b100 T
b0 S
b1 C
b1 H
b1 M
0Y
08"
1!
#191
b1100000 ."
b1100000 )"
b1100000 $"
b1011111 4"
1Y
18"
0!
#192
b0 M
b0 H
b0 C
b1 S
0Y
08"
1!
#193
b1100000 4"
b1100001 $"
b1100001 )"
b1100001 ."
1Y
18"
0!
#194
b101 T
b0 S
b1 C
b1 H
b1 M
0Y
08"
1!
#195
b1100010 ."
b1100010 )"
b1100010 $"
b1100001 4"
1Y
18"
0!
#196
b0 M
b0 H
b0 C
b1 S
0Y
08"
1!
#197
b1100010 4"
b1100011 $"
b1100011 )"
b1100011 ."
1Y
18"
0!
#198
b110 T
b0 S
b1 C
b1 H
b1 M
0Y
08"
1!
#199
b1100100 ."
b1100100 )"
b1100100 $"
b1100011 4"
1Y
18"
0!
#200
b0 M
b0 H
b0 C
b1 S
0Y
08"
1!
#201
b1100100 4"
b1100101 $"
b1100101 )"
b1100101 ."
1Y
18"
0!
#202
b111 T
b0 S
b1 C
b1 H
b1 M
0Y
08"
1!
#203
b1100110 ."
b1100110 )"
b1100110 $"
b1100101 4"
1Y
18"
0!
#204
b0 M
b0 H
b0 C
b1 S
0Y
08"
1!
#205
b1100110 4"
b1100111 $"
b1100111 )"
b1100111 ."
1Y
18"
0!
#206
0V
14
b0 T
b0 S
b1 C
b1 H
b1 M
0Y
08"
1!
#207
b1101000 ."
b1101000 )"
b1101000 $"
b1100111 4"
1Y
18"
0!
#208
0R
1<
1?
b0 M
b0 H
b0 C
04
b1 S
0Y
08"
1!
#209
b1101000 4"
b1101001 $"
b1101001 )"
b1101001 ."
1Y
18"
0!
#210
1R
0U
b0 S
b1 C
b1 H
b1 M
0*
0<
0Y
08"
1!
#211
b1101010 ."
b1101010 )"
b1101010 $"
b1101001 4"
1Y
18"
0!
#212
b0 M
b0 H
b0 C
1U
1V
0Y
08"
1!
#213
b1101010 4"
b1101011 $"
b1101011 )"
b1101011 ."
1Y
18"
0!
#214
b1 S
b1 C
b1 H
b1 M
0Y
08"
1!
#215
b1101100 ."
b1101100 )"
b1101100 $"
b1101011 4"
1Y
18"
0!
#216
b0 M
b0 H
b0 C
b1 T
b0 S
0Y
08"
1!
#217
b1101100 4"
b1101101 $"
b1101101 )"
b1101101 ."
1Y
18"
0!
#218
b1 S
b1 C
b1 H
b1 M
0Y
08"
1!
#219
b1101110 ."
b1101110 )"
b1101110 $"
b1101101 4"
1Y
18"
0!
#220
b0 M
b0 H
b0 C
b10 T
b0 S
0Y
08"
1!
#221
b1101110 4"
b1101111 $"
b1101111 )"
b1101111 ."
1Y
18"
0!
#222
b1 S
b1 C
b1 H
b1 M
0Y
08"
1!
#223
b1110000 ."
b1110000 )"
b1110000 $"
b1101111 4"
1Y
18"
0!
#224
b0 M
b0 H
b0 C
b11 T
b0 S
0Y
08"
1!
#225
b1110000 4"
b1110001 $"
b1110001 )"
b1110001 ."
1Y
18"
0!
#226
b1 S
b1 C
b1 H
b1 M
0Y
08"
1!
#227
b1110010 ."
b1110010 )"
b1110010 $"
b1110001 4"
1Y
18"
0!
#228
b0 M
b0 H
b0 C
b100 T
b0 S
0Y
08"
1!
#229
b1110010 4"
b1110011 $"
b1110011 )"
b1110011 ."
1Y
18"
0!
#230
b1 S
b1 C
b1 H
b1 M
0Y
08"
1!
#231
b1110100 ."
b1110100 )"
b1110100 $"
b1110011 4"
1Y
18"
0!
#232
b0 M
b0 H
b0 C
b101 T
b0 S
0Y
08"
1!
#233
b1110100 4"
b1110101 $"
b1110101 )"
b1110101 ."
1Y
18"
0!
#234
b1 S
b1 C
b1 H
b1 M
0Y
08"
1!
#235
b1110110 ."
b1110110 )"
b1110110 $"
b1110101 4"
1Y
18"
0!
#236
b0 M
b0 H
b0 C
b110 T
b0 S
0Y
08"
1!
#237
b1110110 4"
b1110111 $"
b1110111 )"
b1110111 ."
1Y
18"
0!
#238
b1 S
b1 C
b1 H
b1 M
0Y
08"
1!
#239
b1111000 ."
b1111000 )"
b1111000 $"
b1110111 4"
1Y
18"
0!
#240
b0 M
b0 H
b0 C
b111 T
b0 S
0Y
08"
1!
#241
b1111000 4"
b1111001 $"
b1111001 )"
b1111001 ."
1Y
18"
0!
#242
b1 S
b1 C
b1 H
b1 M
0Y
08"
1!
#243
b1111010 ."
b1111010 )"
b1111010 $"
b1111001 4"
1Y
18"
0!
#244
b0 M
b0 H
b0 C
0V
14
b0 T
b0 S
0Y
08"
1!
#245
b1111010 4"
b1111011 $"
b1111011 )"
b1111011 ."
1Y
18"
0!
#246
0R
04
b1 S
b1 C
b1 H
b1 M
1<
0?
1;
1A
1=
0Y
08"
1!
#247
b1111100 ."
b1111100 )"
b1111100 $"
b1111011 4"
1Y
18"
0!
#248
1*
b10000000 +
b10000000 8
0;
b0 M
1O
1P
b0 H
1J
1K
b0 C
0U
b0 S
0Y
08"
1!
#249
b1111100 4"
b1111101 $"
b1111101 )"
b1111101 ."
1Y
18"
0!
#250
b1 S
b1 C
0J
b1 H
b1 M
0Y
08"
1!
#251
b1111110 ."
b1111110 )"
b1111110 $"
b1111101 4"
1Y
18"
0!
